{
  "project_info": {
    "project_number": "777220438207",
    "firebase_url": "https://ogrencitakipsistemi-25fa3.firebaseio.com",
    "project_id": "ogrencitakipsistemi-25fa3",
    "storage_bucket": "ogrencitakipsistemi-25fa3.appspot.com"
  },
  "client": [
    {
      "client_info": {
        "mobilesdk_app_id": "1:777220438207:android:49fc07d99c02234f",
        "android_client_info": {
          "package_name": "com.actionmobile.ogrencitakipsistemi"
        }
      },
      "oauth_client": [
        {
          "client_id": "777220438207-8nved52kk6c395sp0t2cbqtbbga11vk7.apps.googleusercontent.com",
          "client_type": 3
        }
      ],
      "api_key": [
        {
          "current_key": "AIzaSyCDzg-eagUpnR6dj4qMpDeZCx6qdOBxOX0"
        }
      ],
      "services": {
        "analytics_service": {
          "status": 1
        },
        "appinvite_service": {
          "status": 1,
          "other_platform_oauth_client": []
        },
        "ads_service": {
          "status": 2
        }
      }
    }
  ],
  "configuration_version": "1"
}